<?xml version="1.0" encoding="UTF-8" standalone="no"?>
<!-- Created with Inkscape (http://www.inkscape.org/) -->

<svg
   xmlns:dc="http://purl.org/dc/elements/1.1/"
   xmlns:cc="http://creativecommons.org/ns#"
   xmlns:rdf="http://www.w3.org/1999/02/22-rdf-syntax-ns#"
   xmlns:svg="http://www.w3.org/2000/svg"
   xmlns="http://www.w3.org/2000/svg"
   xmlns:sodipodi="http://sodipodi.sourceforge.net/DTD/sodipodi-0.dtd"
   xmlns:inkscape="http://www.inkscape.org/namespaces/inkscape"
   width="258"
   height="58"
   viewBox="0 0 68.262499 15.345833"
   version="1.1"
   id="svg857"
   inkscape:version="0.92.3 (2405546, 2018-03-11)"
   sodipodi:docname="footer.svg">
  <defs
     id="defs851" />
  <sodipodi:namedview
     id="base"
     pagecolor="#ffffff"
     bordercolor="#666666"
     borderopacity="1.0"
     inkscape:pageopacity="0.0"
     inkscape:pageshadow="2"
     inkscape:zoom="3.959798"
     inkscape:cx="111.63671"
     inkscape:cy="56.087572"
     inkscape:document-units="mm"
     inkscape:current-layer="layer1"
     showgrid="false"
     units="px"
     inkscape:window-width="2560"
     inkscape:window-height="1378"
     inkscape:window-x="0"
     inkscape:window-y="34"
     inkscape:window-maximized="1" />
  <metadata
     id="metadata854">
    <rdf:RDF>
      <cc:Work
         rdf:about="">
        <dc:format>image/svg+xml</dc:format>
        <dc:type
           rdf:resource="http://purl.org/dc/dcmitype/StillImage" />
        <dc:title></dc:title>
      </cc:Work>
    </rdf:RDF>
  </metadata>
  <g
     inkscape:label="Layer 1"
     inkscape:groupmode="layer"
     id="layer1"
     transform="translate(0,-281.65416)">
    <g
       aria-label="joakim*berg:"
       style="font-style:normal;font-weight:normal;font-size:18.31410217px;line-height:1.25;font-family:sans-serif;letter-spacing:0px;word-spacing:0px;fill:#000000;fill-opacity:1;stroke:none;stroke-width:0.45785254"
       id="text1407">
      <path
         style="font-size:19.04999924px;stroke-width:1.73046625"
         d="M -0.50195312 3.8398438 L -0.50195312 7.90625 L 5.046875 7.90625 C 4.8080688 8.9247532 4.6212031 10.372562 4.5019531 12.320312 C 3.5659531 12.608312 2.7749531 13.112297 2.1269531 13.904297 C 0.1109532 16.496297 1.7663125 19.159344 4.0703125 20.527344 C 3.9983125 23.191344 3.9977813 26.143609 3.9257812 29.599609 L 3.9257812 36.007812 C 3.3497812 36.439813 2.9902344 36.873047 2.9902344 36.873047 C 1.0462345 39.321047 0.68631261 44.072875 4.0703125 45.296875 C 4.1108426 47.607089 4.1747296 49.411514 4.2480469 50.662109 L -0.88671875 50.662109 L -0.88671875 54.736328 L 261.00195 54.736328 L 261.00195 50.662109 L 212.25391 50.662109 C 212.70522 48.572518 212.94223 44.788166 213.19531 38.027344 L 213.68164 26.240234 L 222.9707 21.457031 C 226.30506 19.256345 232.32957 9.6828978 231.11914 7.90625 L 260.36719 7.90625 L 260.36719 3.8398438 L -0.50195312 3.8398438 z M 8.1484375 7.90625 L 24.646484 7.90625 C 24.346854 8.8041498 24.259766 10.404009 24.259766 13.132812 C 24.259766 19.362494 23.915537 20.055302 18.447266 25.039062 C 14.709458 28.430773 13.047188 30.784608 13.808594 31.615234 C 14.639217 32.37662 16.576957 31.54599 19.345703 29.261719 C 23.152729 26.077656 23.637423 25.939077 24.052734 28.015625 C 24.329607 29.469231 22.461167 32.237812 19.138672 35.421875 C 15.470083 38.952029 14.223204 40.959545 15.123047 41.859375 C 16.022889 42.828446 17.546957 42.136791 19.900391 39.783203 C 21.769294 37.845099 23.638282 36.597268 23.984375 36.943359 C 24.330466 37.289564 24.536875 41.028735 24.398438 45.320312 C 24.342475 47.754701 24.383986 49.461151 24.541016 50.662109 L 7.3691406 50.662109 C 7.5925446 49.360756 7.7852816 47.509132 7.9589844 45.007812 C 10.766984 43.495812 11.918531 39.464516 8.8945312 36.728516 C 8.6785313 36.512705 8.5343594 36.36842 8.3183594 36.224609 C 8.3903594 34.496609 8.3908906 32.552844 8.4628906 30.464844 C 8.5348906 27.008844 8.5332031 24.056578 8.5332031 21.392578 C 9.6852031 21.032389 10.982687 20.023906 11.054688 17.503906 C 11.198688 15.199906 10.045203 13.471687 8.5332031 12.679688 C 8.4456801 10.579135 8.321259 9.0338854 8.1484375 7.90625 z M 28.693359 7.90625 L 41.148438 7.90625 C 40.900179 9.9038693 41.364332 13.202287 41.234375 16.927734 C 40.874375 27.799734 40.802516 28.016562 35.978516 31.976562 C 32.162516 35.144562 31.36975 36.440062 32.59375 37.664062 C 33.88975 38.888062 34.755219 38.743625 36.699219 37.015625 C 38.06722 35.719625 39.578031 34.712891 40.082031 34.712891 C 40.586031 34.712891 40.947266 39.032797 40.947266 44.216797 C 40.947266 47.22455 41.033763 49.267154 41.228516 50.662109 L 28.970703 50.662109 C 29.218092 48.760409 29.348141 45.031369 29.244141 41.027344 C 29.036486 31.267545 29.867968 20.954655 29.175781 10.917969 C 29.151062 9.3606667 28.970928 8.4571872 28.693359 7.90625 z M 44.667969 7.90625 L 51.421875 7.90625 C 50.509235 16.121488 49.675122 41.794707 50.199219 50.662109 L 44.826172 50.662109 C 45.053164 48.698066 44.738637 45.645621 44.978516 41.767578 C 44.834516 25.495578 45.266516 32.480188 44.978516 15.992188 C 44.759855 12.624807 45.011348 9.7251464 44.667969 7.90625 z M 55.117188 7.90625 L 69.566406 7.90625 C 68.420143 10.124559 67.045462 13.511307 63.775391 16.28125 C 60.319391 19.23325 55.927828 19.519797 55.423828 19.591797 C 54.847828 19.591797 54.704187 16.352312 54.992188 12.320312 C 55.125902 10.565312 55.160157 9.1108301 55.117188 7.90625 z M 73.552734 7.90625 L 77.210938 7.90625 C 76.503449 10.899206 76.136396 17.772908 76.080078 29.599609 C 76.080078 38.963129 76.169477 47.193326 76.380859 50.662109 L 53.767578 50.662109 C 54.229104 48.496813 54.474028 44.563878 54.775391 37.519531 L 55.279297 25.28125 L 64.855469 20.3125 C 67.791863 18.41248 72.878907 11.412076 73.552734 7.90625 z M 80.310547 7.90625 L 84.570312 7.90625 C 85.137845 11.566332 88.098379 18.60254 91.429688 20.400391 L 97.105469 23.515625 L 96.689453 37.291016 C 97.003368 42.99379 96.726328 48.209989 96.720703 50.662109 L 79.515625 50.662109 C 80.068849 47.53135 80.414596 41.048505 80.615234 30.464844 C 80.808661 17.930822 80.78969 11.127101 80.310547 7.90625 z M 87.191406 7.90625 L 97.603516 7.90625 C 97.458329 8.6002343 97.354847 9.4166557 97.3125 10.365234 L 96.966797 17.771484 L 92.882812 15.902344 C 90.385814 14.783015 88.638572 10.587674 87.191406 7.90625 z M 101.03125 7.90625 L 113.14648 7.90625 C 111.90048 10.52901 110.2277 14.462889 107.2793 15.763672 L 101.32812 18.324219 L 100.91211 11.541016 C 101.11055 10.089918 101.12938 8.883104 101.03125 7.90625 z M 115.33398 7.90625 L 147.60938 7.90625 C 146.90619 9.6448727 146.76172 14.361375 146.76172 28.572266 C 146.76172 38.557448 146.96888 47.222987 147.28125 50.662109 L 100.46289 50.662109 C 100.87178 48.918875 101.06169 43.082276 101.18945 37.013672 L 101.32812 23.792969 L 108.45703 20.332031 C 112.84484 17.521843 114.90606 11.35586 115.33398 7.90625 z M 155.23438 7.90625 L 171.34961 7.90625 C 170.7745 10.454004 170.4636 15.80178 170.35547 24.560547 C 169.63547 24.848547 168.91416 25.352266 168.41016 26.072266 C 166.46616 28.520266 167.9792 31.112734 170.2832 32.552734 C 170.2832 40.591974 170.36509 47.527962 170.53125 50.662109 L 156.91992 50.662109 C 159.01276 49.248382 160.87547 47.35487 161.85547 45.296875 C 164.0768 40.527527 163.48855 36.543771 159.69922 31.121094 C 158.13122 28.89979 158.13016 28.050379 159.63281 24.457031 C 161.98481 18.838348 161.78873 16.28908 158.91406 11.650391 C 157.95603 10.070934 156.65821 8.7969871 155.23438 7.90625 z M 174.47461 7.90625 L 185.03516 7.90625 C 184.48929 11.797204 184.21262 40.404405 184.64062 50.662109 L 173.72656 50.662109 C 174.22439 47.772713 174.55245 42.154645 174.74609 33.34375 C 175.82609 32.983939 177.05131 32.047344 177.19531 29.527344 C 177.26731 27.367344 176.25836 25.783922 174.81836 24.919922 C 174.95325 15.927033 174.89067 10.643276 174.47461 7.90625 z M 188.39062 7.90625 L 210.24023 7.90625 C 209.23245 13.188242 208.24323 41.396669 208.78711 50.662109 L 187.36719 50.662109 C 187.8913 47.84106 188.18829 42.282455 188.32617 32.722656 L 188.67188 12.994141 L 192.47852 18.117188 L 196.28516 23.308594 L 193.72461 28.292969 C 190.47133 34.661095 190.54063 36.390784 194.34766 41.097656 C 196.07812 43.243445 198.56961 46.358278 199.88477 48.019531 C 201.26914 49.749988 203.27578 50.856966 204.66016 50.580078 C 206.6675 50.164784 206.11546 48.988604 201.0625 42.828125 L 195.10938 35.560547 L 198.36133 29.675781 L 201.61523 23.861328 L 195.59375 15.970703 C 192.42844 11.79994 190.11018 9.1857571 188.39062 7.90625 z M 213.39062 7.90625 L 228.61133 7.90625 C 227.11703 9.5023065 226.04386 14.049461 221.93164 17.574219 C 218.53431 20.416877 214.37498 20.694318 213.82031 20.763672 C 213.33498 20.763672 213.12696 17.642436 213.4043 13.759766 C 213.60084 11.180066 213.5853 9.2424311 213.39062 7.90625 z M 219.25391 9.1621094 C 218.46497 9.1174223 217.65013 9.426289 217.07812 10.154297 C 215.62213 11.956943 217.70221 13.83008 219.43555 14.107422 C 219.43555 14.107422 221.58399 14.453914 221.72266 12.027344 C 221.80933 10.294005 220.5688 9.2365878 219.25391 9.1621094 z M 151.33008 11.273438 C 151.99576 11.270757 153.16928 12.313013 155.25586 13.742188 C 158.39186 15.898181 158.58875 22.104337 155.19141 24.652344 C 148.98474 29.290996 150.29121 26.612093 150.42188 17.857422 C 150.45863 13.006436 150.47421 11.276884 151.33008 11.273438 z M 151.33594 31.380859 C 151.92394 31.380859 154.60173 32.362369 156.03906 33.734375 C 158.06439 35.825021 159.04503 37.261062 158.45703 40.789062 C 158.06503 43.206373 156.88996 45.493356 155.7793 46.277344 C 152.64329 48.433337 150.4874 50.328598 150.55273 45.363281 C 150.55273 40.13661 149.96394 31.44617 151.33594 31.380859 z "
         transform="matrix(0.26458333,0,0,0.26458333,0,281.65416)"
         id="path871" />
      <path
         d="m 34.182688,290.53162 c 0,0 0.970648,0.16483 1.02559,-0.93402 0.05494,-1.22704 -1.410186,-1.70321 -2.087808,-0.84245 -0.640993,0.80582 0.274712,1.6849 1.062218,1.77647 z"
         style="font-style:normal;font-variant:normal;font-weight:normal;font-stretch:normal;font-family:medeltidarunor;-inkscape-font-specification:medeltidarunor;stroke-width:0.45785254"
         id="path883" />
      <path
         d="m 65.064001,294.0713 c 0,0 0.898878,0.13829 0.950736,-0.89887 0.06915,-1.15817 -1.331031,-1.59033 -1.970617,-0.77788 -0.605014,0.76059 0.276578,1.57304 1.019881,1.67675 z m 0.03457,-6.32671 c 0,0 0.898878,0.13828 0.968022,-0.89888 0.05186,-1.15817 -1.33103,-1.59032 -1.970616,-0.77788 -0.605014,0.76059 0.259291,1.57304 1.002594,1.67676 z"
         style="font-size:17.28611183px"
         id="path893" />
    </g>
  </g>
</svg>
